<svg width="28" height="28" viewBox="0 0 28 28" fill="none" xmlns="http://www.w3.org/2000/svg">
<path d="M25.0837 12.7193V4.78594C25.0837 3.03594 24.337 2.33594 22.482 2.33594H17.7687C15.9137 2.33594 15.167 3.03594 15.167 4.78594V12.7193C15.167 14.4693 15.9137 15.1693 17.7687 15.1693H22.482C24.337 15.1693 25.0837 14.4693 25.0837 12.7193Z" fill="#9BACB6"/>
<path d="M12.8337 15.2859V23.2193C12.8337 24.9693 12.087 25.6693 10.232 25.6693H5.51866C3.66366 25.6693 2.91699 24.9693 2.91699 23.2193V15.2859C2.91699 13.5359 3.66366 12.8359 5.51866 12.8359H10.232C12.087 12.8359 12.8337 13.5359 12.8337 15.2859Z" fill="#9BACB6"/>
<path d="M25.0837 23.2167V19.95C25.0837 18.2 24.337 17.5 22.482 17.5H17.7687C15.9137 17.5 15.167 18.2 15.167 19.95V23.2167C15.167 24.9667 15.9137 25.6667 17.7687 25.6667H22.482C24.337 25.6667 25.0837 24.9667 25.0837 23.2167Z" fill="#9BACB6"/>
<path d="M12.8337 8.0526V4.78594C12.8337 3.03594 12.087 2.33594 10.232 2.33594H5.51866C3.66366 2.33594 2.91699 3.03594 2.91699 4.78594V8.0526C2.91699 9.8026 3.66366 10.5026 5.51866 10.5026H10.232C12.087 10.5026 12.8337 9.8026 12.8337 8.0526Z" fill="#9BACB6"/>
</svg>
