<svg width="28" height="28" viewBox="0 0 28 28" fill="none" xmlns="http://www.w3.org/2000/svg">
<path d="M5.83366 17.5C4.73699 17.5 3.72199 17.885 2.91699 18.5267C1.84366 19.3783 1.16699 20.6967 1.16699 22.1667C1.16699 24.745 3.25533 26.8333 5.83366 26.8333C7.01199 26.8333 8.08533 26.39 8.91366 25.6667C9.88199 24.815 10.5003 23.5667 10.5003 22.1667C10.5003 19.5883 8.41199 17.5 5.83366 17.5ZM7.00033 22.4583C7.00033 22.7617 6.83699 23.0533 6.58033 23.205L5.12199 24.08C4.98199 24.1733 4.81866 24.2083 4.66699 24.2083C4.37533 24.2083 4.08366 24.0567 3.92033 23.7883C3.67533 23.3683 3.80366 22.8317 4.22366 22.5867L5.26199 21.9683V20.7083C5.25033 20.23 5.64699 19.8333 6.12533 19.8333C6.60366 19.8333 7.00033 20.23 7.00033 20.7083V22.4583Z" fill="white"/>
<path d="M17.3253 4.60729V9.04062H15.5753V4.60729C15.5753 4.29229 15.2953 4.14062 15.1087 4.14062C15.0503 4.14062 14.992 4.15229 14.9337 4.17562L5.68199 7.66396C5.06366 7.89729 4.66699 8.48062 4.66699 9.14562V9.92729C3.60533 10.7206 2.91699 11.9923 2.91699 13.4273V9.14562C2.91699 7.75729 3.76866 6.52062 5.06366 6.03063L14.327 2.53063C14.5837 2.43729 14.852 2.39062 15.1087 2.39062C16.2753 2.39062 17.3253 3.33563 17.3253 4.60729Z" fill="white"/>
<path d="M25.0835 16.9193V18.0859C25.0835 18.4009 24.8385 18.6576 24.5118 18.6693H22.8085C22.1901 18.6693 21.6301 18.2143 21.5835 17.6076C21.5485 17.2459 21.6885 16.9076 21.9218 16.6743C22.1318 16.4526 22.4235 16.3359 22.7385 16.3359H24.5001C24.8385 16.3476 25.0835 16.6043 25.0835 16.9193Z" fill="white"/>
<path d="M22.727 15.1057H23.917C24.5587 15.1057 25.0837 14.5807 25.0837 13.9391V13.4257C25.0837 11.0107 23.112 9.03906 20.697 9.03906H7.30366C6.31199 9.03906 5.40199 9.36573 4.66699 9.92573C3.60533 10.7191 2.91699 11.9907 2.91699 13.4257V15.5024C2.91699 15.9457 3.38366 16.2257 3.80366 16.0857C4.45699 15.8641 5.14533 15.7474 5.83366 15.7474C9.36866 15.7474 12.2503 18.6291 12.2503 22.1641C12.2503 23.0041 12.0287 23.9257 11.6787 24.7424C11.492 25.1624 11.7837 25.6641 12.2387 25.6641H20.697C23.112 25.6641 25.0837 23.6924 25.0837 21.2774V21.0557C25.0837 20.4141 24.5587 19.8891 23.917 19.8891H22.902C21.782 19.8891 20.7087 19.2007 20.417 18.1157C20.1837 17.2291 20.4637 16.3657 21.047 15.8057C21.4787 15.3624 22.0737 15.1057 22.727 15.1057ZM16.3337 14.8724H10.5003C10.022 14.8724 9.62533 14.4757 9.62533 13.9974C9.62533 13.5191 10.022 13.1224 10.5003 13.1224H16.3337C16.812 13.1224 17.2087 13.5191 17.2087 13.9974C17.2087 14.4757 16.812 14.8724 16.3337 14.8724Z" fill="white"/>
</svg>
