<svg width="28" height="28" viewBox="0 0 28 28" fill="none" xmlns="http://www.w3.org/2000/svg">
<path d="M14 20C17.3137 20 20 17.3137 20 14C20 10.6863 17.3137 8 14 8C10.6863 8 8 10.6863 8 14C8 17.3137 10.6863 20 14 20Z" stroke="white" stroke-width="0.9" stroke-linecap="round" stroke-linejoin="round"/>
<path d="M14.0008 15.1969C14.6635 15.1969 15.2008 14.6596 15.2008 13.9969C15.2008 13.3341 14.6635 12.7969 14.0008 12.7969C13.338 12.7969 12.8008 13.3341 12.8008 13.9969C12.8008 14.6596 13.338 15.1969 14.0008 15.1969Z" stroke="white" stroke-width="0.9" stroke-linecap="round" stroke-linejoin="round"/>
</svg>
