<svg width="28" height="28" viewBox="0 0 28 28" fill="none" xmlns="http://www.w3.org/2000/svg">
<path d="M19.833 2.83594H8.16634C4.66634 2.83594 2.33301 5.16927 2.33301 8.66927V15.6693C2.33301 19.1693 4.66634 21.5026 8.16634 21.5026V23.9876C8.16634 24.9209 9.20468 25.4809 9.97468 24.9559L15.1663 21.5026H19.833C23.333 21.5026 25.6663 19.1693 25.6663 15.6693V8.66927C25.6663 5.16927 23.333 2.83594 19.833 2.83594ZM13.9997 17.0343C13.5097 17.0343 13.1247 16.6376 13.1247 16.1593C13.1247 15.6809 13.5097 15.2843 13.9997 15.2843C14.4897 15.2843 14.8747 15.6809 14.8747 16.1593C14.8747 16.6376 14.4897 17.0343 13.9997 17.0343ZM15.4697 12.1926C15.0147 12.4959 14.8747 12.6943 14.8747 13.0209V13.2659C14.8747 13.7443 14.478 14.1409 13.9997 14.1409C13.5213 14.1409 13.1247 13.7443 13.1247 13.2659V13.0209C13.1247 11.6676 14.1163 11.0026 14.4897 10.7459C14.9213 10.4543 15.0613 10.2559 15.0613 9.9526C15.0613 9.36927 14.583 8.89094 13.9997 8.89094C13.4163 8.89094 12.938 9.36927 12.938 9.9526C12.938 10.4309 12.5413 10.8276 12.063 10.8276C11.5847 10.8276 11.188 10.4309 11.188 9.9526C11.188 8.40094 12.448 7.14094 13.9997 7.14094C15.5513 7.14094 16.8113 8.40094 16.8113 9.9526C16.8113 11.2826 15.8313 11.9476 15.4697 12.1926Z" fill="white"/>
</svg>
